.build_sample_e0_t0/wave.vcd
$date
	Fri Apr  3 17:35:13 2026
$end
$version
	Icarus Verilog
$end
$timescale
	1ps
$end
$scope module tb $end
$scope module stim1 $end
$var wire 1 ! clk $end
$upscope $end
$upscope $end
$scope module tb $end
$var wire 1 " tb_mismatch $end
$upscope $end
$scope module tb $end
$var reg 1 ! clk $end
$upscope $end
$scope module tb $end
$var wire 1 # areset $end
$upscope $end
$scope module tb $end
$var wire 1 $ bump_left $end
$upscope $end
$scope module tb $end
$var wire 1 % bump_right $end
$upscope $end
$scope module tb $end
$var wire 1 & ground $end
$upscope $end
$scope module tb $end
$var wire 1 ' dig $end
$upscope $end
$scope module tb $end
$var wire 1 ( walk_left_ref $end
$upscope $end
$scope module tb $end
$var wire 1 ) walk_left_dut $end
$upscope $end
$scope module tb $end
$var wire 1 * walk_right_ref $end
$upscope $end
$scope module tb $end
$var wire 1 + walk_right_dut $end
$upscope $end
$scope module tb $end
$var wire 1 , aaah_ref $end
$upscope $end
$scope module tb $end
$var wire 1 - aaah_dut $end
$upscope $end
$scope module tb $end
$var wire 1 . digging_ref $end
$upscope $end
$scope module tb $end
$var wire 1 / digging_dut $end
$upscope $end
$enddefinitions $end
$comment Show the parameter values. $end
$dumpall
$end
#0
$dumpvars
0/
0.
0-
0,
0+
0*
1)
1(
0'
1&
0%
0$
1#
0"
0!
$end
#5
1!
#10
0!
#15
0#
1!
#20
0!
#25
1!
#30
0!
#35
1!
#40
0!
#45
1!
#50
1#
0!
#55
1!
#60
0!
#65
1#
1!
#70
0!
#75
0#
1!
#80
0!
#85
1!
#90
0!
#95
1!
#100
0!
#105
1'
1!
#110
0!
#115
0"
1.
1/
0(
0)
0'
1!
#120
0!
#125
1$
1!
#130
0!
#135
0$
1!
#140
0!
#145
0&
1!
#150
0!
#155
0"
1,
0.
1-
0/
1!
#160
0!
#165
1!
#170
0!
#175
1&
1'
1!
#180
0!
#185
0-
0"
0,
1)
1(
0'
1!
#190
0!
#195
1!
#200
0!
#205
1!
#210
0!
#215
1!
#220
0!
#225
1'
1$
1!
#230
0'
0!
#235
0"
0(
1*
0)
1+
1'
0$
1!
#240
0'
0!
#245
1%
1!
#250
0%
0!
#255
1'
1$
1!
#260
0'
0$
0!
#265
1%
1!
#270
0%
1$
0!
#275
1'
1!
#280
0'
0$
0!
#285
0&
1!
#290
1&
1%
0!
#295
0"
1(
0*
1)
0+
0%
1!
#300
1'
1$
0!
#305
1/
0"
1.
0)
0(
0$
1!
#310
0'
0!
#315
1!
#320
1$
0!
#325
1!
#330
0$
0!
#335
1%
1!
#340
1$
0!
#345
0%
1!
#350
0$
0!
#355
1%
1!
#360
1$
0!
#365
1!
#370
0%
0!
#375
1'
1!
#380
0'
0$
0!
#385
1!
#390
1'
1%
0!
#395
0'
0%
1!
#400
0!
#405
1$
1!
#410
1%
0$
0!
#415
1'
0%
1!
#420
0&
0'
0!
#425
0"
1-
0/
1,
0.
1'
1%
1!
#430
1&
0'
0%
1$
0!
#435
0"
0,
0-
1(
1)
0$
1!
#440
1%
0!
#445
0%
1!
#450
0!
#455
1'
1!
#460
0'
1%
0!
#465
0%
1!
#470
0!
#475
1$
1!
#480
1%
0!
#485
0"
0)
1+
0(
1*
0%
0$
1!
#490
1'
1%
0!
#495
0"
1.
1/
0*
0+
0'
0%
1!
#500
0!
#505
1%
1$
1!
#510
0%
0$
0!
#515
1'
1%
1!
#520
0'
0%
0!
#525
1!
#530
1%
1$
0!
#535
1'
0%
0$
1!
#540
0'
0!
#545
1!
#550
1'
0!
#555
0'
1!
#560
0!
#565
1!
#570
0!
#575
1$
1!
#580
0!
#585
0$
1!
#590
0!
#595
1$
1!
#600
1'
0$
0!
#605
0'
1$
1!
#610
0$
0!
#615
1!
#620
0!
#625
0&
1!
#630
1&
0!
#635
1!
#640
1$
0!
#645
0$
1!
#650
0!
#655
1!
#660
1'
1%
0!
#665
0'
0%
1!
#670
1'
1$
0!
#675
0$
1!
#680
0'
1%
1$
0!
#685
0&
1'
0%
0$
1!
#690
1&
0'
0!
#695
1'
1!
#700
0'
1%
0!
#705
0%
1!
#710
1'
0!
#715
0'
1!
#720
1'
0!
#725
0'
1!
#730
1%
0!
#735
1$
1!
#740
0%
0$
0!
#745
1'
1!
#750
0"
0.
0/
1(
1)
1#
0'
0!
#755
0#
1!
#760
0!
#765
1$
1!
#770
0$
0!
#775
1#
1%
1!
#780
0#
0%
1$
0!
#785
0"
0)
1+
0(
1*
0&
1'
1!
#790
1&
0'
0!
#795
0&
0$
1!
#800
1&
0!
#805
1'
1!
#810
0"
1(
0*
1)
0+
1#
0'
1$
0!
#815
0#
0&
0$
1!
#820
1&
1'
1%
0!
#825
0"
1.
1/
0(
0)
1!
#830
0'
0%
0!
#835
1!
#840
0!
#845
1!
#850
1'
0!
#855
0'
1$
1!
#860
0$
0!
#865
1$
1!
#870
0$
0!
#875
1!
#880
1$
0!
#885
0&
1!
#890
1&
0$
0!
#895
1!
#900
1'
0!
#905
0'
1!
#910
1'
0!
#915
0'
1$
1!
#920
0$
0!
#925
1'
1!
#930
0'
0!
#935
1!
#940
0!
#945
1$
1!
#950
0$
0!
#955
1'
1$
1!
#960
0&
0'
0$
0!
#965
0"
1,
0.
1-
0/
1&
1%
1!
#970
1'
0%
1$
0!
#975
0-
0"
0,
1)
1(
0&
0'
0$
1!
#980
1&
0!
#985
1!
#990
1'
1$
0!
#995
1/
0"
1.
0)
0(
0$
1!
#1000
0&
0'
1%
0!
#1005
0"
1,
0.
1-
0/
1&
1'
0%
1!
#1010
0'
0!
#1015
0-
0"
0,
1)
1(
1!
#1020
0!
#1025
1%
1$
1!
#1030
1'
0%
0!
#1035
1/
0"
1.
0)
0(
0'
0$
1!
#1040
1'
1%
0!
#1045
0/
0"
0.
1)
1(
1#
0%
1!
#1050
0#
0!
#1055
0"
1.
1/
0(
0)
1!
#1060
0'
1$
0!
#1065
0$
1!
#1070
1%
0!
#1075
0%
1!
#1080
0!
#1085
1'
1$
1!
#1090
0&
0$
0!
#1095
0"
1,
0.
1-
0/
1&00000000000000000000000000000000000000000000000000000000000000000000000000000000000000000000000000000000000000000000000000000000000000000000000000000000000000000000 %
1!
#180
0!
#185
b100000000000000010000000000000111000000000000000000000000000000000000000000000000000000000000000000000000000000000000000000000000000000000000000000000000000000000000000000000000000000000000000000000000000000000000000000000000000000000000000000000000000000 %
1!
#190
0!
#195
b1000000000000000011000000000000011000000000000000000000000000000000000000000000000000000000000000000000000000000000000000000000000000000000000000000000000000000000000000000000000000000000000000000000000000000000000000000000000000000000000000000000000000000 %
1!
#200
0!
#205
b100000000000000001000000000000011100000000000000000000000000000000000000000000000000000000000000000000000000000000000000000000000000000000000000000000000000000000000000000000000000000000000000000000000000000000000000000000000000000000000000000000000000000 %
1!
#210
0!
#215
b101000000000000001100000000000000100000000000000000000000000000000000000000000000000000000000000000000000000000000000000000000000000000000000000000000000000000000000000000000000000000000000000000000000000000000000000000000000000000000000000 %
1!
#220
0!
#225
b1000000000000010100000000000000110000000000000000000000000000000000000000000000000000000000000000000000000000000000000000000000000000000000000000000000000000000000000000000000000000000000000000000000000000000000000000000000000000000000000 %
1!
#230
0!
#235
b10000000000000000110000000000000110000000000000000000000000000000000000000000000000000000000000000000000000000000000000000000000000000000000000000000000000000000000000000000000000000000000000000000000000000000000000000000000000000000000000 %
1!
#240
0!
#245
b1000000000000000010000000000000111000000000000000000000000000000000000000000000000000000000000000000000000000000000000000000000000000000000000000000000000000000000000000000000000000000000000000000000000000000000000000000000000000000000000 %
1!
#250
0!
#255
b1010000000000000011000000000000001000000000000000000000000000000000000000000000000000000000000000000000000000000000000000000000000000000000000000000000000000000000000000000000000000000000000000000000000000000000000000000000 %
1!
#260
0!
#265
b10000000000000101000000000000001100000000000000000000000000000000000000000000000000000000000000000000000000000000000000000000000000000000000000000000000000000000000000000000000000000000000000000000000000000000000000000000 %
1!
#270
0!
#275
b100000000000000001100000000000001100000000000000000000000000000000000000000000000000000000000000000000000000000000000000000000000000000000000000000000000000000000000000000000000000000000000000000000000000000000000000000000 %
1!
#280
0!
#285
b10000000000000000100000000000001110000000000000000000000000000000000000000000000000000000000000000000000000000000000000000000000000000000000000000000000000000000000000000000000000000000000000000000000000000000000000000000 %
1!
#290
0!
#295
b10100000000000000110000000000000010000000000000000000000000000000000000000000000000000000000000000000000000000000000000000000000000000000000000000000000000000000000000000000000000000000000000000000000000000 %
1!
#300
0!
#305
b100000000000001010000000000000011000000000000000000000000000000000000000000000000000000000000000000000000000000000000000000000000000000000000000000000000000000000000000000000000000000000000000000000000000 %
1!
#310
0!
#315
b1000000000000000011000000000000011000000000000000000000000000000000000000000000000000000000000000000000000000000000000000000000000000000000000000000000000000000000000000000000000000000000000000000000000000 %
1!
#320
0!
#325
b100000000000000001000000000000011100000000000000000000000000000000000000000000000000000000000000000000000000000000000000000000000000000000000000000000000000000000000000000000000000000000000000000000000000 %
1!
#330
0!
#335
b101000000000000001100000000000000100000000000000000000000000000000000000000000000000000000000000000000000000000000000000000000000000000000000000000000000000000000000000000000000000000000000 %
1!
#340
0!
#345
b1000000000000010100000000000000110000000000000000000000000000000000000000000000000000000000000000000000000000000000000000000000000000000000000000000000000000000000000000000000000000000000 %
1!
#350
0!
#355
b10000000000000000110000000000000110000000000000000000000000000000000000000000000000000000000000000000000000000000000000000000000000000000000000000000000000000000000000000000000000000000000 %
1!
#360
0!
#365
b1000000000000000010000000000000111000000000000000000000000000000000000000000000000000000000000000000000000000000000000000000000000000000000000000000000000000000000000000000000000000000000 %
1!
#370
0!
#375
b1010000000000000011000000000000001000000000000000000000000000000000000000000000000000000000000000000000000000000000000000000000000000000000000000000000000000000000000000000 %
1!
#380
0!
#385
b10000000000000101000000000000001100000000000000000000000000000000000000000000000000000000000000000000000000000000000000000000000000000000000000000000000000000000000000000 %
1!
#390
0!
#395
b100000000000000001100000000000001100000000000000000000000000000000000000000000000000000000000000000000000000000000000000000000000000000000000000000000000000000000000000000 %
1!
#400
0!
#405
b10000000000000000100000000000001110000000000000000000000000000000000000000000000000000000000000000000000000000000000000000000000000000000000000000000000000000000000000000 %
1!
#410
0!
#415
b10100000000000000110000000000000010000000000000000000000000000000000000000000000000000000000000000000000000000000000000000000000000000000000000000000000000 %
1!
#420
0!
#425
b100000000000001010000000000000011000000000000000000000000000000000000000000000000000000000000000000000000000000000000000000000000000000000000000000000000 %
1!
#430
0!
#435
b1000000000000000011000000000000011000000000000000000000000000000000000000000000000000000000000000000000000000000000000000000000000000000000000000000000000 %
1!
#440
0!
#445
b100000000000000001000000000000011100000000000000000000000000000000000000000000000000000000000000000000000000000000000000000000000000000000000000000000000 %
1!
#450
0!
#455
b101000000000000001100000000000000100000000000000000000000000000000000000000000000000000000000000000000000000000000000000000000000000000000 %
1!
#460
0!
#465
b1000000000000010100000000000000110000000000000000000000000000000000000000000000000000000000000000000000000000000000000000000000000000000 %
1!
#470
0!
#475
b10000000000000000110000000000000110000000000000000000000000000000000000000000000000000000000000000000000000000000000000000000000000000000 %
1!
#480
0!
#485
b1000000000000000010000000000000111000000000000000000000000000000000000000000000000000000000000000000000000000000000000000000000000000000 %
1!
#490
0!
#495
b1010000000000000011000000000000001000000000000000000000000000000000000000000000000000000000000000000000000000000000000000 %
1!
#500
0!
#505
b10000000000000101000000000000001100000000000000000000000000000000000000000000000000000000000000000000000000000000000000 %
1!
#510
0!
#515
b100000000000000001100000000000001100000000000000000000000000000000000000000000000000000000000000000000000000000000000000 %
1!
#520
0!
#525
b10000000000000000100000000000001110000000000000000000000000000000000000000000000000000000000000000000000000000000000000 %
1!
#530
0!
#535
b10100000000000000110000000000000010000000000000000000000000000000000000000000000000000000000000000000000 %
1!
#540
0!
#545
b100000000000001010000000000000011000000000000000000000000000000000000000000000000000000000000000000000 %
1!
#550
0!
#555
b1000000000000000011000000000000011000000000000000000000000000000000000000000000000000000000000000000000 %
1!
#560
0!
#565
b100000000000000001000000000000011100000000000000000000000000000000000000000000000000000000000000000000 %
1!
#570
0!
#575
b101000000000000001100000000000000100000000000000000000000000000000000000000000000000000 %
1!
#580
0!
#585
b1000000000000010100000000000000110000000000000000000000000000000000000000000000000000 %
1!
#590
0!
#595
b10000000000000000110000000000000110000000000000000000000000000000000000000000000000000 %
1!
#600
0!
#605
b1000000000000000010000000000000111000000000000000000000000000000000000000000000000000 %
1!
#610
0!
#615
b1010000000000000011000000000000001000000000000000000000000000000000000 %
1!
#620
0!
#625
b10000000000000101000000000000001100000000000000000000000000000000000 %
1!
#630
0!
#635
b100000000000000001100000000000001100000000000000000000000000000000000 %
1!
#640
0!
#645
b10000000000000000100000000000001110000000000000000000000000000000000 %
1!
#650
0!
#655
b10100000000000000110000000000000010000000000000000000 %
1!
#660
0!
#665
b100000000000001010000000000000011000000000000000000 %
1!
#670
0!
#675
b1000000000000000011000000000000011000000000000000000 %
1!
#680
0!
#685
b100000000000000001000000000000011100000000000000000 %
1!
#690
0!
#695
b101000000000000001100000000000000100 %
1!
#700
0!
#705
b1000000000000010100000000000000110 %
1!
#710
0!
#715
b10000000000000000110000000000000110 %
1!
#720
0!
#725
0"
b1000000000000000010000000000000111 %
1!
#730
0!
#735
1"
b10000000000000000000000000000000000000000000000000000000000000000000000000000000000000000000000000000000000000000000000000000000000000000000000000000000000000000000000000000000000000000000000000000000000000000000000000000001010000000000000011 %
1!
#740
0!
#745
b11000000000000000000000000000000000000000000000000000000000000000000000000000000000000000000000000000000000000000000000000000000000000000000000000000000000000000000000000000000000000000000000000000000000000000000000000000000010000000000000101 %
1!
#750
0!
#755
b11000000000000000000000000000000000000000000000000000000000000000000000000000000000000000000000000000000000000000000000000000000000000000000000000000000000000000000000000000000000000000000000000000000000000000000000000000000101000000000000001 %
1!
#760
0!
#765
b1000000000000011000000000000000000000000000000000000000000000000000000000000000000000000000000000000000000000000000000000000000000000000000000000000000000000000000000000000000000000000000000000000000000000000000000000000000000000000000000011000000000000000 %
1!
#770
0!
#775
b1000000000000001000000000000000100000000000000000000000000000000000000000000000000000000000000000000000000000000000000000000000000000000000000000000000000000000000000000000000000000000000000000000000000000000000000000000000000000000000000001000000000000010 %
1!
#780
0!
#785
b1000000000000010100000000000000100000000000000000000000000000000000000000000000000000000000000000000000000000000000000000000000000000000000000000000000000000000000000000000000000000000000000000000000000000000000000000000000000000000000000001000000000000000 %
1!
#790
0!
#795
b1100000000000000100000000000000100000000000000000000000000000000000000000000000000000000000000000000000000000000000000000000000000000000000000000000000000000000000000000000000000000000000000000000000000000000000000000000000000000000000000000000000000000001 %
1!
#800
0!
#805
b100000000000000110000000000000100000000000000000000000000000000000000000000000000000000000000000000000000000000000000000000000000000000000000000000000000000000000000000000000000000000000000000000000000000000000000000000000000000000000000001000000000000000 %
1!
#810
0!
#815
b100000000000001110000000000000010000000000000000000000000000000000000000000000000000000000000000000000000000000000000000000000000000000000000000000000000000000000000000000000000000000000000000000000000000000000000000000000000000000000000000000000000000000 %
1!
#820
0!
#825
b100000000000000010000000000000111000000000000000000000000000000000000000000000000000000000000000000000000000000000000000000000000000000000000000000000000000000000000000000000000000000000000000000000000000000000000000000000000000000000000000000000000000000 %
1!
#830
0!
#835
b1000000000000000011000000000000011000000000000000000000000000000000000000000000000000000000000000000000000000000000000000000000000000000000000000000000000000000000000000000000000000000000000000000000000000000000000000000000000000000000000000000000000000000 %
1!
#840
0!
#845
b100000000000000001000000000000011100000000000000000000000000000000000000000000000000000000000000000000000000000000000000000000000000000000000000000000000000000000000000000000000000000000000000000000000000000000000000000000000000000000000000000000000000000 %
1!
#850
0!
#855
b101000000000000001100000000000000100000000000000000000000000000000000000000000000000000000000000000000000000000000000000000000000000000000000000000000000000000000000000000000000000000000000000000000000000000000000000000000000000000000000000 %
1!
#860
0!
#865
b1000000000000010100000000000000110000000000000000000000000000000000000000000000000000000000000000000000000000000000000000000000000000000000000000000000000000000000000000000000000000000000000000000000000000000000000000000000000000000000000 %
1!
#870
0!
#875
b10000000000000000110000000000000110000000000000000000000000000000000000000000000000000000000000000000000000000000000000000000000000000000000000000000000000000000000000000000000000000000000000000000000000000000000000000000000000000000000000 %
1!
#880
0!
#885
b1000000000000000010000000000000111000000000000000000000000000000000000000000000000000000000000000000000000000000000000000000000000000000000000000000000000000000000000000000000000000000000000000000000000000000000000000000000000000000000000 %
1!
#890
0!
#895
b1010000000000000011000000000000001000000000000000000000000000000000000000000000000000000000000000000000000000000000000000000000000000000000000000000000000000000000000000000000000000000000000000000000000000000000000000000000 %
1!
#900
0!
#905
b10000000000000101000000000000001100000000000000000000000000000000000000000000000000000000000000000000000000000000000000000000000000000000000000000000000000000000000000000000000000000000000000000000000000000000000000000000 %
1!
#910
0!
#915
b100000000000000001100000000000001100000000000000000000000000000000000000000000000000000000000000000000000000000000000000000000000000000000000000000000000000000000000000000000000000000000000000000000000000000000000000000000 %
1!
#920
0!
#925
b10000000000000000100000000000001110000000000000000000000000000000000000000000000000000000000000000000000000000000000000000000000000000000000000000000000000000000000000000000000000000000000000000000000000000000000000000000 %
1!
#930
0!
#935
b10100000000000000110000000000000010000000000000000000000000000000000000000000000000000000000000000000000000000000000000000000000000000000000000000000000000000000000000000000000000000000000000000000000000000 %
1!
#940
0!
#945
b100000000000001010000000000000011000000000000000000000000000000000000000000000000000000000000000000000000000000000000000000000000000000000000000000000000000000000000000000000000000000000000000000000000000 %
1!
#950
0!
#955
b1000000000000000011000000000000011000000000000000000000000000000000000000000000000000000000000000000000000000000000000000000000000000000000000000000000000000000000000000000000000000000000000000000000000000 %
1!
#960
0!
#965
b100000000000000001000000000000011100000000000000000000000000000000000000000000000000000000000000000000000000000000000000000000000000000000000000000000000000000000000000000000000000000000000000000000000000 %
1!
#970
0!
#975
b101000000000000001100000000000000100000000000000000000000000000000000000000000000000000000000000000000000000000000000000000000000000000000000000000000000000000000000000000000000000000000000 %
1!
#980
0!
#985
b1000000000000010100000000000000110000000000000000000000000000000000000000000000000000000000000000000000000000000000000000000000000000000000000000000000000000000000000000000000000000000000 %
1!
#990
0!
#995
b10000000000000000110000000000000110000000000000000000000000000000000000000000000000000000000000000000000000000000000000000000000000000000000000000000000000000000000000000000000000000000000 %
1!
#1000
0!
#1005
b1000000000000000010000000000000111000000000000000000000000000000000000000000000000000000000000000000000000000000000000000000000000000000000000000000000000000000000000000000000000000000000 %
1!
#1010
0!
#1015
b1010000000000000011000000000000001000000000000000000000000000000000000000000000000000000000000000000000000000000000000000000000000000000000000000000000000000000000000000000 %
1!
#1020
0!
#1025
b10000000000000101000000000000001100000000000000000000000000000000000000000000000000000000000000000000000000000000000000000000000000000000000000000000000000000000000000000 %
1!
#1030
0!
#1035
b100000000000000001100000000000001100000000000000000000000000000000000000000000000000000000000000000000000000000000000000000000000000000000000000000000000000000000000000000 %
1!
#1040
0!
#1045
b10000000000000000100000000000001110000000000000000000000000000000000000000000000000000000000000000000000000000000000000000000000000000000000000000000000000000000000000000 %
1!
#1050
0!
#1055
b10100000000000000110000000000000010000000000000000000000000000000000000000000000000000000000000000000000000000000000000000000000000000000000000000000000000 %
1!
#1060
0!
#1065
b100000000000001010000000000000011000000000000000000000000000000000000000000000000000000000000000000000000000000000000000000000000000000000000000000000000 %
1!
#1070
0!
#1075
b1000000000000000011000000000000011000000000000000000000000000000000000000000000000000000000000000000000000000000000000000000000000000000000000000000000000 %
1!
#1080
0!
#1085
b100000000000000001000000000000011100000000000000000000000000000000000000000000000000000000000000000000000000000000000000000000000000000000000000000000000 %
1#
b100000000000000000100000000000011001110 $
1!
#1090
0!
#1095
0"
b100000000000000000100000000000011001110 %
0#
b100000000000000000100000000000011001110 &
1!
#1100
0!
#1105
1"
b100000000000000000000000000000000000000000000000000000000000000000000000000000000000000000000000000000000000000000000000000000000000000000000000000000000000000000000000000000000000000000000000000000000000000000000000000111011000000000000001100 %
1!
#1110
0!
#1115
b1100000000000000000000000000000000000000000000000000000000000000000000000000000000000000000000000000000000000000000000000000000000000000000000000000000000000000000000000000000000000000000000000000000000000100000000000000010111000000000001010010 %
1!
#1120
0!
#1125
b1100000000000000000000000000000000000000000000000000000000000000000000000000000000000000000000000000000000000000000000000000000000000000000000000000000000000000000000000000000000000000000000000000000000000010100000000000110111000000000000010010 %
1!
#1130
0!
#1135
b1100000000000000000000000000000000000000000000000000000000000000000000000000000000000000000000000000000000000000000000000000000000000000000000000000000000000000000000000000000000000000000000000000000000000110110000000000010001000000000000110010 %
1!
#1140
0!
#1145
b11100000000000000000000000000000000000000000000000000000000000000000000000000000000000000000000000000000000000000000000000000000000000000000000000000000000000000000000000000000000000000000000000000000000000110110000000000010001100000000000110010 %
1!
#1150
0!
#1155
b111100000000000000100000000000000000000000000000000000000000000000000000000000000000000000000000000000000000000000000000000000000000000000000000000000000000000000000000000000000000000000000000000000000000000110111000000000010000100000000000110010 %
1!
#1160
0!
#1165
b100100000000000000110000000000000000000000000000000000000000000000000000000000000000000000000000000000000000000000000000000000000000000000000000000000000000000000000000000000000000000000000000000100000000000110011000000000010010110000000001000010 %
1!
#1170
0!
#1175
b1110000000000000110000000000000000000000000000000000000000000000000000000000000000000000000000000000000000000000000000000000000000000000000000000000000000000000000000000000000000000000000000000110000000000110100100000000110000010000000001100011 %
1!
#1180
0!
#1185
b11001000000000000101000000000000000000000000000000000000000000000000000000000000000000000000000000000000000000000000000000000000000000000000000000000000000000000000000000000000000000000000000000110000000001110010110000000100100010000000011100001 %
1!
#1190
0!
#1195
b1111111000000000001110000000000000000000000000000000000000000000000000000000000000000000000000000000000000000000000000000000000000000000000000000000000000000000000000000000000000000000000000001000110100000001110110110000001000100010000000011101011 %
1!
#1200
0!
#1205
b10000001000000000000000000000000000010000000000000000000000000000000000000000000000000000000000000000000000000000000000000000000000000000000000000000000000000000000000000000000000000000000000011101111100000001111110000000001000000000000000010000000 %
1!
#1210
0!
#1215
b10001100000000010000011000000010000000100000001001110000000000110000000 %
1!
#1220
0!
#1225
b1110000000010000101000000011001001100000011000100000000000110010000 %
1!
#1230
0!
#1235
b1000000000000001011000000110001100000000101000101100000010001110000000001110000000 %
1!
#1240
0!
#1245
b100000000000000000000000000000000000000000000000000000000000000000000000000000000000000000000000000000000000000000000000000000000000000000000000000000000000000000000001000000000000011011000000110001000000000101100001100000110110111000000001100010000 %
1!
#1250
0!
#1255
b1100000000000000000000000000000000000000000000000000000000000000000000000000000000000000000000000000000000000000000000000000000000000000000000000000000000000000000000011000000000000011111000000111001000000001100011001100000100010111100000010000110000 %
1!
#1260
0!
#1265
b1000000000000000000000000000000000000000000000000000000000000000000000000000000000000000000000000000000000000000000000000000000000000000000000000000000000000000000000100100000000100010011000001111101000000001110000001100001100010001110000010000110100 %
1!
#1270
0!
#1275
b10000000100011011000010001010110100010000010000000001000001011010000111000101100 %
1!
#1280
0!
#1285
b10000000000000000000000000000000000000000000000000000000000000000000000000000000000000000000000000000000000000000000000000000000000000000000000000000000000000000000000000010000000000011011100000001110110100011000110000000011000011011100000110000001110 %
1!
#1290
0!
#1295
b110000000100000000000000000000000000000000000000000000000000000000000000000000000000000000000000000000000000000000000000000000000000000000000000000000000000000000000000000011000000001111010100000001010110110111001000000000010000011010110001010000011010 %
1!
#1300
0!
#1305
b110000001100000000000000000000000000000000000000000000000000000000000000000000000000000000000000000000000000000000000000000000000000000000000000000000000000100000000001100011000000001101010000100001010110110110001001100010010100011010110001010000111011 %
1!
#1310
0!
#1315
b110000001110000000000000000000000000000000000000000000000000000000000000000000000000000000000000000000000000000000000000000000000000000000000000000000000000110000000011100111000000000001010011100001000110111101001000000001010100010000101001011001100000 %
1!
#1320
0!
#1325
b111000000100000000000000010000000000000000000000000000000000000000000000000000000000000000000000000000000000000000000000000000000000000000001000000000010000010000000001101100010000001101000000100000000110100001001100011100010100111000010011001001100011 %
1!
#1330
0!
#1335
b1111000000100000001000000000000000000000000000000000000000000000000000000000000000000000000000000000000000000000000000000000000000000000000001000000000011001100000000000011100000000001100010000100001100000100001001010010000110111000001000011001110100011 %
1!
#1340
0!
#1345
b11000000000010000001100000000000000000000000000000000000000000000000000000000000000000000000000000000000000000000000000000000000000000000000001000000000001100000000000010010010000000011100010000000000000000000101011010000001110100000001010000000010000110 %
1!
#1350
0!
#1355
b110000000000000000000000000000000000000000000000000000000000000000000000000000000000000000000000000000000000000000000000000000000000000000000001100100000000110011100000000011100000000000010010000000100100000000000110011110001000100100000000101 %
1!
#1360
0!
#1365
b110000000000000000000000000000000000000000000000000000000000000000000000000000000000000000000000000000000000000000000000000000000000000000000001101000000000100011100000000100110110000000001010000001100100100000000111111100000100011000110001100 %
1!
#1370
0!
#1375
b1110000000000000000000000000000000000000000000000000000000000000000000000000000000000000000000000000000000000000000000000000000000000000000000001101100000000001000000000000110110010000000011011000001000100110000001000100010001000010010010001000 %
1!
#1380
0!
#1385
b1100000000000000010000000000000000000000000000000000000000000000000000000000000000000000000000000000000000000000000000000000000000000000000000001000100000000011011100000000110000000000000100001000000000000001100001100110111000000000000000001010 %
1!
#1390
0!
#1395
b1010000000000000110000000000000000000000000000000000000000000000000000000000000000000000000000000000000000000000000000000000000000000000000000011111000000000111111100000000111111110000000010011000000000111111100000000000011011000000000001011000 %
1!
#1400
0!
#1405
b110000000000000000000000000000000000000000000000000000000000000000000000000000000000000000000000000000000000000011100000000000000001100000001000000000000000100000010000000000000010000000010000000000000001000001000000000001000000 %
1!
#1410
0!
#1415
b10000000000000001100000000000000111100000000000000100000000000000010000000000000000000000000000000000000000100000000000000000000000 %
1!
#1420
0!
#1425
b11000000000000010011000000000000100100000000000000010000000000000010000000000000000000000000000000000000000000000000000000000000000 %
1!
#1430
0!
#1435
b11000000000000010011000000000000001110000000000000010000000000000010000000000000000000000000000000000000000000000000000000000000000 %
1!
#1440
0!
#1445
b11010000000000001010100000000000001010000000000000011000000000000010000000000000000000000000000000000000000000000000000000000000000 %
1!
#1450
0!
#1455
b11110000000000001010100000000000011011000000000000111000000000000001000000000000000000000000000000000000000000000000000000000000000 %
1!
#1460
0!
#1465
b10100000000000010100000000000001000110000000000000001000000000001100100000000000011100000000000000000000000000000000000000000000000000000000000000 %
1!
#1470
0!
#1475
b11000000000000010111000000000000100110000000000010101100000000001100100000000000111100000000000000000000000000000000000000000000000000000000000000 %
1!
#1480
0!
#1485
b11000000000000010011100000000001100001000000000110100100000000010000110000000000101100000000000001000000000000000000000000000000000000000000000000 %
1!
#1490
0!
#1495
b10110000000000010001100000000010011001000000001000000110000000010100110000000000101110000000000001100000000000000000000000000000000000000000000000 %
1!
#1500
0!
#1505
b111000000000011100100000000011011101100000001111000010000000011100001000000000101011000000000001100000000000000100000000000000000000000000000000 %
1!
#1510
0!
#1515
b1100000000000011111000000000110100000000000000000111100000000000000011000000100010001000000001001101000000000010110000000000000100000000000000000000000000000000 %
1!
#1520
0!
#1525
b10000000000000010010000000000110001000000000010000000000000000000011110000000000011001000000000011011100000001010010000000000010011000000000000110000000000000000000000000000000 %
1!
#1530
0!
#1535
b110100000000000111000000000000011000101000000000000111110000000000000000100000000010011100000000110000100000000010111000000000000111000000000000000000000000000000 %
1!
#1540
0!
#1545
b10000000000001011000000000000000000000000000010101101100000000000110110000000000110000100000000100011100000000110010110000000010001000000000000100100000000000010000000000000000 %
1!
#1550
0!
#1555
b10000000000000011000000000000000110000000000000011101100000000000000101000000000010000100000001101110010000000100010010000000010011000000000001100000000000000000000000000000000 %
1!
#1560
0!
#1565
b10000000000000010000000000000000001000000000000110111100000000000011101000000001110100110000001111010110000001101000000000000110011000000000001100000000000000000000000000000000 %
1!
#1570
0!
#1575
b1000000000000001011010000000000010000100000000010000001100000010000000010000010000001111000000000000000000000000110000000000011100000000000000000000000000000000 %
1!
#1580
0!
#1585
b1100000000000000010000000000000011000110000000010000001100000011000000001000000000000111000000001000011000000011100000000000001110000000000000110000000000000000 %
1!
#1590
0!
#1595
b1100000000000000001000000000000101000111000000110000011100000011000001001000000000000101000000011000010100000010010000000000010010000000000000100000000000000001 %
1!
#1600
0!
#1605
b1100000000000000001000100000001100000101000000001000100010000011000011001000001100001101100000011000000000000011110000000000011010000000000000110000000000000001 %
1!
#1610
0!
#1615
b1100000000000001110000100000000110000111000000001000101110000010000100101100000000001111100000000100000000000100010000000000010001000000000001001000000000000011 %
1!
#1620
0!
#1625
b1000000000000000000000000000000000000000000000000000000000000000010000000000000000100000000000001000001110000000000000000100000000000100001000001000100000100000000001110110000000000011100000000111000000000111001000000000001011000000000000011 %
1!
#1630
0!
#1635
b1000000000000011000000000000000000000000000000000000000000000000000000000000000010000000000000001000001000000000000000110000000000000111100000000000000011000000000100000110000000001000110000000100100110000100111000100000111100100000000010000000000000000000 %
1!
#1640
0!
#1645
b1000000000000000100000000000000000000000000000000000000000000000000000000000000000000001100000000000000001000000000000100010000000000001000100000000000000010000000011001001000000111010111001101101100010000101110100000000010110000000000000001 %
1!
#1650
0!
#1655
b1000000000000011000000000000000000000000000000000000000000000000000000000000000000000000000000000000000100000000000000111000000000000000010000000000000001100000000000000111000000011011001100000100000101011101000010110001100000110000000000000000000000000000 %
1!
#1660
0!
#1665
b1000000000000000100000000000000000000000000000000000000000000000000000000000000000000001110000000000000111000000000000001011000000000000010010000000000001000000000000011000000000001100000000100001100111011010000010000000000000000000000000001 %
1!
#1670
0!
#1675
b1000000000000011000000000000000000000000000000000000000000000000000000000000000000000001000000000000001010000000000000000000000000000010011000000000000110100000000000001000000000000001000000000011110010001000001000010000100000110001000000000000000000000000 %
1!
#1680
0!
#1685
b1000000000000000100000000000000000000000000000000000000000000000000000001000000000000000100000000000000010100000000000001111000000000000110100000000000001100000000011001100000000011101110000000010000111000000000110000000000000000000000000001 %
1!
#1690
0!
