.build_sample_e1_t0/wave.vcd
$date
	Fri Apr  3 22:30:13 2026
$end
$version
	Icarus Verilog
$end
$timescale
	1ps
$end
$scope module tb $end
$scope module stim1 $end
$var wire 1 ! clk $end
$upscope $end
$upscope $end
$scope module tb $end
$var wire 1 " tb_mismatch $end
$upscope $end
$scope module tb $end
$var reg 1 ! clk $end
$upscope $end
$scope module tb $end
$var wire 1 # areset $end
$upscope $end
$scope module tb $end
$var wire 1 $ bump_left $end
$upscope $end
$scope module tb $end
$var wire 1 % bump_right $end
$upscope $end
$scope module tb $end
$var wire 1 & ground $end
$upscope $end
$scope module tb $end
$var wire 1 ' dig $end
$upscope $end
$scope module tb $end
$var wire 1 ( walk_left_ref $end
$upscope $end
$scope module tb $end
$var wire 1 ) walk_left_dut $end
$upscope $end
$scope module tb $end
$var wire 1 * walk_right_ref $end
$upscope $end
$scope module tb $end
$var wire 1 + walk_right_dut $end
$upscope $end
$scope module tb $end
$var wire 1 , aaah_ref $end
$upscope $end
$scope module tb $end
$var wire 1 - aaah_dut $end
$upscope $end
$scope module tb $end
$var wire 1 . digging_ref $end
$upscope $end
$scope module tb $end
$var wire 1 / digging_dut $end
$upscope $end
$enddefinitions $end
$comment Show the parameter values. $end
$dumpall
$end
#0
$dumpvars
0/
0.
0-
0,
0+
0*
1)
1(
x'
x&
x%
x$
1#
0"
0!
$end
#5
0$
0%
1&
0'
0#
1!
#10
0!
#15
1!
#20
0!
#25
1'
1!
#30
0!
#35
0"
1.
1/
0'
0(
0)
1!
#40
0!
#45
1$
1!
#50
0!
#55
0$
1!
#60
0!
#65
0&
1!
#70
0!
#75
0"
1,
0.
1-
0/
1!
#80
0!
#85
1!
#90
0!
#95
1&
1'
1!
#100
0!
#105
0-
0"
0,
0'
1)
1(
1!
#110
0!
#115
1!
#120
0!
#125
1!
#130
0!
#135
1!
#140
0!
#145
0&
1!
#150
0!
#155
0"
1,
1-
0(
0)
1!
#160
0!
#165
1!
#170
0!
#175
1!
#180
0!
#185
1!
#190
0!
#195
1!
#200
0!
#205
1!
#210
0!
#215
1!
#220
0!
#225
1!
#230
0!
#235
1!
#240
0!
#245
1!
#250
0!
#255
1!
#260
0!
#265
1!
#270
0!
#275
1!
#280
0!
#285
1!
#290
0!
#295
1!
#300
0!
#305
1!
#310
0!
#315
1!
#320
0!
#325
1!
#330
0!
#335
1!
#340
0!
#345
1&
1!
#350
0!
#355
0"
0,
0-
0&
1(
1)
1!
#360
0!
#365
1-
0"
1,
0)
0(
1!
#370
0!
#375
1!
#380
0!
#385
1!
#390
0!
#395
1!
#400
0!
#405
1!
#410
0!
#415
1!
#420
0!
#425
1!
#430
0!
#435
1!
#440
0!
#445
1!
#450
0!
#455
1!
#460
0!
#465
1!
#470
0!
#475
1!
#480
0!
#485
1!
#490
0!
#495
1!
#500
0!
#505
1!
#510
0!
#515
1!
#520
0!
#525
1!
#530
0!
#535
1!
#540
0!
#545
1!
#550
0!
#555
1!
#560
0!
#565
1&
1!
#570
0!
#575
1"
0,
0-
1)
1!
#580
0!
#585
1$
1!
#590
0!
#595
0$
0)
1+
1!
#600
0!
#605
1'
1!
#610
0!
#615
1/
0+
1!
#620
0!
#625
1!
#630
0!
#635
1$
1!
#640
0!
#645
0'
1%
0$
1!
#650
0!
#655
0%
1!
#660
0!
#665
1'
1$
1!
#670
0!
#675
0&
0'
1%
0$
1!
#680
0!
#685
1-
0/
1&
0%
1!
#690
0!
#695
0-
1%
1+
1!
#700
0!
#705
1$
1)
0+
1!
#710
0!
#715
0$
0)
1+
1!
#720
0!
#725
1$
1)
0+
1!
#730
0!
#735
0%
0$
0)
1+
1!
#740
0!
#745
0&
1!
#750
0!
#755
1-
1&
0+
1!
#760
0!
#765
0"
1(
1)
0-
1#
0'
0%
0+
1!
#770
0!
#775
1$
0#
1!
#780
0!
#785
0"
0(
1*
0)
1+
1!
#790
0!
#795
1!
#800
0!
#805
1!
#810
0!
#815
1!
#820
0!
#825
0$
0&
1!
#830
0!
#835
1-
0"
1,
0+
0*
1!
#840
0!
#845
1!
#850
0!
#855
1!
#860
0!
#865
1!
#870
0!
#875
1!
#880
0!
#885
1!
#890
0!
#895
1!
#900
0!
#905
1!
#910
0!
#915
1!
#920
0!
#925
1!
#930
0!
#935
1!
#940
0!
#945
1!
#950
0!
#955
1!
#960
0!
#965
1!
#970
0!
#975
1!
#980
0!
#985
1!
#990
0!
#995
1!
#1000
0!
#1005
1!
#1010
0!
#1015
1!
#1020
0!
#1025
1!
#1030
0!
#1035
1&
1!
#1040
0!
#1045
1"
0,
0-
1+
1!
#1050
0!
#1055
1$
1!
#1060
0!
#1065
1%
0$
1!
#1070
0!
#1075
0%
1$
1)
0+
1!
#1080
0!
#1085
0$
0)
1+
1!
#1090
0!
#1095
1!
#1100
0!
#1105
1'
1!
#1110
0!
#1115
1/
0&
0'
1$
0+
1!
#1120
0!
#1125
1-
0/
1&
1!
#1130
0!
#1135
0-
0&
0$
1+
1!
#1140
0!
#1145
1-
1&
1'
1$
0+
1!
#1150
0!
#1155
0-
0$
1+
1!
#1160
0!
#1165
1/
0'
1%
1$
0+
1!
#1170
0!
#1175
0%
0$
1!
#1180
0!
#1185
0&
1%
1!
#1190
0!
#1195
1-
0/
1&
1'
1!
#1200
0!
#1205
0-
0'
1+
1!
#1210
0!
#1215
1$
1)
0+
1!
#1220
0!
#1225
1'
0%
0$
0)
1+
1!
#1230
0!
#1235
0"
1(
1)
0/
1#
0'
1%
0+
1!
#1240
0!
#1245
0%
0#
1!
#1250
0!
#1255
0&
1!
#1260
0!
#1265
1-
0"
1,
0)
0(
1!
