.build_sample_e1_t8/wave.vcd
$date
	Fri Apr  3 23:16:30 2026
$end
$version
	Icarus Verilog
$end
$timescale
	1ps
$end
$scope module tb $end
$scope module stim1 $end
$var wire 1 ! clk $end
$upscope $end
$upscope $end
$scope module tb $end
$var wire 1 " tb_mismatch $end
$upscope $end
$scope module tb $end
$var reg 1 ! clk $end
$upscope $end
$scope module tb $end
$var wire 1 # load $end
$upscope $end
$scope module tb $end
$var wire 512 $ data [511:0] $end
$upscope $end
$scope module tb $end
$var wire 512 % q_ref [511:0] $end
$upscope $end
$scope module tb $end
$var wire 512 & q_dut [511:0] $end
$upscope $end
$enddefinitions $end
$comment Show the parameter values. $end
$dumpall
$end
#0
$dumpvars
b1 &
bx %
b1 $
1#
0"
0!
$end
#5
0"
b1 %
1!
#10
0!
#15
1!
#20
0!
#25
0#
1!
#30
0!
#35
1"
b11 %
1!
#40
0!
#45
b111 %
1!
#50
0!
#55
b1101 %
1!
#60
0!
#65
b11111 %
1!
#70
0!
#75
b110001 %
1!
#80
0!
#85
b1110011 %
1!
#90
0!
#95
b11010111 %
1!
#100
0!
#105
b111111101 %
1!
#110
0!
#115
b1100000111 %
1!
#120
0!
#125
b11100001101 %
1!
#126
b10000000000000000000000000000000000000000000000000000000000000000000000000000000000000000000000000000000000000000000000000000000000000000000000000000000000000000000000000000000000000000000000000000000000000000000000000000000000000000000000000000000000000000 &
1#
b10000000000000000000000000000000000000000000000000000000000000000000000000000000000000000000000000000000000000000000000000000000000000000000000000000000000000000000000000000000000000000000000000000000000000000000000000000000000000000000000000000000000000000 $
#130
0!
#135
0"
b10000000000000000000000000000000000000000000000000000000000000000000000000000000000000000000000000000000000000000000000000000000000000000000000000000000000000000000000000000000000000000000000000000000000000000000000000000000000000000000000000000000000000000 %
1!
#140
0!
#145
1!
#150
0!
#155
0
1*
1)
0"
1,
1+
1$
0#
1&
0!
#305
1!
#310
1"
0*
0,
0&
0!
#315
0"
0)
1,
0%
1&
1!
#320
0"
0,
0+
0$
1%
1#
0&
0!
#325
1*
1)
0"
1,
1+
0#
1&
1!
#330
00000000000000000000000000000000000000000000000000000000000000000000000000000000000000000000000000000000000000000000000000000100000000000000010 %
1#
b1000000000000000010000000000000111 $
b100000000000000010000000000000001 &
1!
#60
0!
#65
0"
b1000000000000000010000000000000111 %
b1000000000000000010000000000000111 &
1!
#70
0!
#75
b1000000000000000010000000000000111 %
1!
#80
0!
#85
b1000000000000000010000000000000111 %
b0xxxx $
0#
1!
#90
0!
#95
1"
b10000000000000000000000000000000000000000000000000000000000000000000000000000000000000000000000000000000000000000000000000000000000000000000000000000000000000000000000000000000000000000000000000000000000000000000000000000001010000000000000011 %
b100000000000000100000000000000100000000000000100000000000000100000000000000100000000000000100000000000000100000000000000100000000000000100000000000000100000000000000100000000000000000000000000000000000000000000000000000000000001 &
1!
#100
0!
#105
b11000000000000000000000000000000000000000000000000000000000000000000000000000000000000000000000000000000000000000000000000000000000000000000000000000000000000000000000000000000000000000000000000000000000000000000000000000000010000000000000101 %
b0 &
1!
#110
0!
#115
b11000000000000000000000000000000000000000000000000000000000000000000000000000000000000000000000000000000000000000000000000000000000000000000000000000000000000000000000000000000000000000000000000000000000000000000000000000000101000000000000001 %
1!
#120
0!
#125
b1000000000000011000000000000000000000000000000000000000000000000000000000000000000000000000000000000000000000000000000000000000000000000000000000000000000000000000000000000000000000000000000000000000000000000000000000000000000000000000000011000000000000000 %
1!
#130
0!
#135
b1000000000000001000000000000000100000000000000000000000000000000000000000000000000000000000000000000000000000000000000000000000000000000000000000000000000000000000000000000000000000000000000000000000000000000000000000000000000000000000000001000000000000010 %
1!
#140
0!
#145
b1000000000000010100000000000000100000000000000000000000000000000000000000000000000000000000000000000000000000000000000000000000000000000000000000000000000000000000000000000000000000000000000000000000000000000000000000000000000000000000000001000000000000000 %
1!
#150
0!
#155
b1100000000000000100000000000000100000000000000000000000000000000000000000000000000000000000000000000000000000000000000000000000000000000000000000000000000000000000000000000000000000000000000000000000000000000000000000000000000000000000000000000000000000001 %
1!
#160
0!
#165
b100000000000000110000000000000100000000000000000000000000000000000000000000000000000000000000000000000000000000000000000000000000000000000000000000000000000000000000000000000000000000000000000000000000000000000000000000000000000000000000001000000000000000 %
1!
#170
0!
#175
b100000000000001110000000000000010000000000000000000000000000000000000000000000000000000000000000000000000000000000000000000000000000000000000000000000000000000000000000000000000000000000000000000000000000000000000000000000000000000000000000000000000000000 %
1!
#180
0!
#185
b100000000000000010000000000000111000000000000000000000000000000000000000000000000000000000000000000000000000000000000000000000000000000000000000000000000000000000000000000000000000000000000000000000000000000000000000000000000000000000000000000000000000000 %
1!
#190
0!
#195
b1000000000000000011000000000000011000000000000000000000000000000000000000000000000000000000000000000000000000000000000000000000000000000000000000000000000000000000000000000000000000000000000000000000000000000000000000000000000000000000000000000000000000000 %
1!
#200
0!
#205
b100000000000000001000000000000011100000000000000000000000000000000000000000000000000000000000000000000000000000000000000000000000000000000000000000000000000000000000000000000000000000000000000000000000000000000000000000000000000000000000000000000000000000 %
1!
#210
0!
#215
b101000000000000001100000000000000100000000000000000000000000000000000000000000000000000000000000000000000000000000000000000000000000000000000000000000000000000000000000000000000000000000000000000000000000000000000000000000000000000000000000 %
1!
#220
0!
#225
b1000000000000010100000000000000110000000000000000000000000000000000000000000000000000000000000000000000000000000000000000000000000000000000000000000000000000000000000000000000000000000000000000000000000000000000000000000000000000000000000 %
1!
#230
0!
#235
b10000000000000000110000000000000110000000000000000000000000000000000000000000000000000000000000000000000000000000000000000000000000000000000000000000000000000000000000000000000000000000000000000000000000000000000000000000000000000000000000 %
1!
#240
0!
#245
b1000000000000000010000000000000111000000000000000000000000000000000000000000000000000000000000000000000000000000000000000000000000000000000000000000000000000000000000000000000000000000000000000000000000000000000000000000000000000000000000 %
1!
#250
0!
#255
b1010000000000000011000000000000001000000000000000000000000000000000000000000000000000000000000000000000000000000000000000000000000000000000000000000000000000000000000000000000000000000000000000000000000000000000000000000000 %
1!
#260
0!
#265
b10000000000000101000000000000001100000000000000000000000000000000000000000000000000000000000000000000000000000000000000000000000000000000000000000000000000000000000000000000000000000000000000000000000000000000000000000000 %
1!
#270
0!
#275
b100000000000000001100000000000001100000000000000000000000000000000000000000000000000000000000000000000000000000000000000000000000000000000000000000000000000000000000000000000000000000000000000000000000000000000000000000000 %
1!
#280
0!
#285
b10000000000000000100000000000001110000000000000000000000000000000000000000000000000000000000000000000000000000000000000000000000000000000000000000000000000000000000000000000000000000000000000000000000000000000000000000000 %
1!
#290
0!
#295
b10100000000000000110000000000000010000000000000000000000000000000000000000000000000000000000000000000000000000000000000000000000000000000000000000000000000000000000000000000000000000000000000000000000000000 %
1!
#300
0!
#305
b100000000000001010000000000000011000000000000000000000000000000000000000000000000000000000000000000000000000000000000000000000000000000000000000000000000000000000000000000000000000000000000000000000000000 %
1!
#310
0!
#315
b1000000000000000011000000000000011000000000000000000000000000000000000000000000000000000000000000000000000000000000000000000000000000000000000000000000000000000000000000000000000000000000000000000000000000 %
1!
#320
0!
#325
b100000000000000001000000000000011100000000000000000000000000000000000000000000000000000000000000000000000000000000000000000000000000000000000000000000000000000000000000000000000000000000000000000000000000 %
1!
#330
0!
#335
b101000000000000001100000000000000100000000000000000000000000000000000000000000000000000000000000000000000000000000000000000000000000000000000000000000000000000000000000000000000000000000000 %
1!
#340
0!
#345
b1000000000000010100000000000000110000000000000000000000000000000000000000000000000000000000000000000000000000000000000000000000000000000000000000000000000000000000000000000000000000000000 %
1!
#350
0!
#355
b10000000000000000110000000000000110000000000000000000000000000000000000000000000000000000000000000000000000000000000000000000000000000000000000000000000000000000000000000000000000000000000 %
1!
#360
0!
#365
b1000000000000000010000000000000111000000000000000000000000000000000000000000000000000000000000000000000000000000000000000000000000000000000000000000000000000000000000000000000000000000000 %
1!
#370
0!
#375
b1010000000000000011000000000000001000000000000000000000000000000000000000000000000000000000000000000000000000000000000000000000000000000000000000000000000000000000000000000 %
1!
#380
0!
#385
b10000000000000101000000000000001100000000000000000000000000000000000000000000000000000000000000000000000000000000000000000000000000000000000000000000000000000000000000000 %
1!
#390
0!
#395
b100000000000000001100000000000001100000000000000000000000000000000000000000000000000000000000000000000000000000000000000000000000000000000000000000000000000000000000000000 %
1!
#400
0!
#405
b10000000000000000100000000000001110000000000000000000000000000000000000000000000000000000000000000000000000000000000000000000000000000000000000000000000000000000000000000 %
1!
#410
0!
#415
b10100000000000000110000000000000010000000000000000000000000000000000000000000000000000000000000000000000000000000000000000000000000000000000000000000000000 %
1!
#420
0!
#425
b100000000000001010000000000000011000000000000000000000000000000000000000000000000000000000000000000000000000000000000000000000000000000000000000000000000 %
1!
#430
0!
#435
b1000000000000000011000000000000011000000000000000000000000000000000000000000000000000000000000000000000000000000000000000000000000000000000000000000000000 %
1!
#440
0!
#445
b100000000000000001000000000000011100000000000000000000000000000000000000000000000000000000000000000000000000000000000000000000000000000000000000000000000 %
1!
#450
0!
#455
b101000000000000001100000000000000100000000000000000000000000000000000000000000000000000000000000000000000000000000000000000000000000000000 %
1!
#460
0!
#465
b1000000000000010100000000000000110000000000000000000000000000000000000000000000000000000000000000000000000000000000000000000000000000000 %
1!
#470
0!
#475
b10000000000000000110000000000000110000000000000000000000000000000000000000000000000000000000000000000000000000000000000000000000000000000 %
1!
#480
0!
#485
b1000000000000000010000000000000111000000000000000000000000000000000000000000000000000000000000000000000000000000000000000000000000000000 %
1!
#490
0!
#495
b1010000000000000011000000000000001000000000000000000000000000000000000000000000000000000000000000000000000000000000000000 %
1!
#500
0!
#505
b10000000000000101000000000000001100000000000000000000000000000000000000000000000000000000000000000000000000000000000000 %
1!
#510
0!
#515
b100000000000000001100000000000001100000000000000000000000000000000000000000000000000000000000000000000000000000000000000 %
1!
#520
0!
#525
b10000000000000000100000000000001110000000000000000000000000000000000000000000000000000000000000000000000000000000000000 %
1!
#530
0!
#535
b10100000000000000110000000000000010000000000000000000000000000000000000000000000000000000000000000000000 %
1!
#540
0!
#545
b100000000000001010000000000000011000000000000000000000000000000000000000000000000000000000000000000000 %
1!
#550
0!
#555
b1000000000000000011000000000000011000000000000000000000000000000000000000000000000000000000000000000000 %
1!
#560
0!
#565
b100000000000000001000000000000011100000000000000000000000000000000000000000000000000000000000000000000 %
1!
#570
0!
#575
b101000000000000001100000000000000100000000000000000000000000000000000000000000000000000 %
1!
#580
0!
#585
b1000000000000010100000000000000110000000000000000000000000000000000000000000000000000 %
1!
#590
0!
#595
b10000000000000000110000000000000110000000000000000000000000000000000000000000000000000 %
1!
#600
0!
#605
b1000000000000000010000000000000111000000000000000000000000000000000000000000000000000 %
1!
#610
0!
#615
b1010000000000000011000000000000001000000000000000000000000000000000000 %
1!
#620
0!
#625
b10000000000000101000000000000001100000000000000000000000000000000000 %
1!
#630
0!
#635
b100000000000000001100000000000001100000000000000000000000000000000000 %
1!
#640
0!
#645
b10000000000000000100000000000001110000000000000000000000000000000000 %
1!
#650
0!
#655
b10100000000000000110000000000000010000000000000000000 %
1!
#660
0!
#665
b100000000000001010000000000000011000000000000000000 %
1!
#670
0!
#675
b1000000000000000011000000000000011000000000000000000 %
1!
#680
0!
#685
b100000000000000001000000000000011100000000000000000 %
1!
#690
0!
#695
b101000000000000001100000000000000100 %
1!
#700
0!
#705
b1000000000000010100000000000000110 %
1!
#710
0!
#715
b10000000000000000110000000000000110 %
1!
#720
0!
#725
b1000000000000000010000000000000111 %
1!
#730
0!
#735
b10000000000000000000000000000000000000000000000000000000000000000000000000000000000000000000000000000000000000000000000000000000000000000000000000000000000000000000000000000000000000000000000000000000000000000000000000000001010000000000000011 %
1!
#740
0!
#745
b11000000000000000000000000000000000000000000000000000000000000000000000000000000000000000000000000000000000000000000000000000000000000000000000000000000000000000000000000000000000000000000000000000000000000000000000000000000010000000000000101 %
1!
#750
0!
#755
b11000000000000000000000000000000000000000000000000000000000000000000000000000000000000000000000000000000000000000000000000000000000000000000000000000000000000000000000000000000000000000000000000000000000000000000000000000000101000000000000001 %
1!
#760
0!
#765
b1000000000000011000000000000000000000000000000000000000000000000000000000000000000000000000000000000000000000000000000000000000000000000000000000000000000000000000000000000000000000000000000000000000000000000000000000000000000000000000000011000000000000000 %
1!
#770
0!
#775
b1000000000000001000000000000000100000000000000000000000000000000000000000000000000000000000000000000000000000000000000000000000000000000000000000000000000000000000000000000000000000000000000000000000000000000000000000000000000000000000000001000000000000010 %
1!
#780
0!
#785
b1000000000000010100000000000000100000000000000000000000000000000000000000000000000000000000000000000000000000000000000000000000000000000000000000000000000000000000000000000000000000000000000000000000000000000000000000000000000000000000000001000000000000000 %
1!
#790
0!
#795
b1100000000000000100000000000000100000000000000000000000000000000000000000000000000000000000000000000000000000000000000000000000000000000000000000000000000000000000000000000000000000000000000000000000000000000000000000000000000000000000000000000000000000001 %
1!
#800
0!
#805
b100000000000000110000000000000100000000000000000000000000000000000000000000000000000000000000000000000000000000000000000000000000000000000000000000000000000000000000000000000000000000000000000000000000000000000000000000000000000000000000001000000000000000 %
1!
#810
0!
#815
b100000000000001110000000000000010000000000000000000000000000000000000000000000000000000000000000000000000000000000000000000000000000000000000000000000000000000000000000000000000000000000000000000000000000000000000000000000000000000000000000000000000000000 %
1!
#820
0!
#825
b100000000000000010000000000000111000000000000000000000000000000000000000000000000000000000000000000000000000000000000000000000000000000000000000000000000000000000000000000000000000000000000000000000000000000000000000000000000000000000000000000000000000000 %
1!
#830
0!
#835
b1000000000000000011000000000000011000000000000000000000000000000000000000000000000000000000000000000000000000000000000000000000000000000000000000000000000000000000000000000000000000000000000000000000000000000000000000000000000000000000000000000000000000000 %
1!
#840
0!
#845
b100000000000000001000000000000011100000000000000000000000000000000000000000000000000000000000000000000000000000000000000000000000000000000000000000000000000000000000000000000000000000000000000000000000000000000000000000000000000000000000000000000000000000 %
1!
#850
0!
#855
b101000000000000001100000000000000100000000000000000000000000000000000000000000000000000000000000000000000000000000000000000000000000000000000000000000000000000000000000000000000000000000000000000000000000000000000000000000000000000000000000 %
1!
#860
0!
#865
b1000000000000010100000000000000110000000000000000000000000000000000000000000000000000000000000000000000000000000000000000000000000000000000000000000000000000000000000000000000000000000000000000000000000000000000000000000000000000000000000 %
1!
#870
0!
#875
b10000000000000000110000000000000110000000000000000000000000000000000000000000000000000000000000000000000000000000000000000000000000000000000000000000000000000000000000000000000000000000000000000000000000000000000000000000000000000000000000 %
1!
#880
0!
#885
b1000000000000000010000000000000111000000000000000000000000000000000000000000000000000000000000000000000000000000000000000000000000000000000000000000000000000000000000000000000000000000000000000000000000000000000000000000000000000000000000 %
1!
#890
0!
#895
b1010000000000000011000000000000001000000000000000000000000000000000000000000000000000000000000000000000000000000000000000000000000000000000000000000000000000000000000000000000000000000000000000000000000000000000000000000000 %
1!
#900
0!
#905
b10000000000000101000000000000001100000000000000000000000000000000000000000000000000000000000000000000000000000000000000000000000000000000000000000000000000000000000000000000000000000000000000000000000000000000000000000000 %
1!
#910
0!
#915
b100000000000000001100000000000001100000000000000000000000000000000000000000000000000000000000000000000000000000000000000000000000000000000000000000000000000000000000000000000000000000000000000000000000000000000000000000000 %
1!
#920
0!
#925
b10000000000000000100000000000001110000000000000000000000000000000000000000000000000000000000000000000000000000000000000000000000000000000000000000000000000000000000000000000000000000000000000000000000000000000000000000000 %
1!
#930
0!
#935
b10100000000000000110000000000000010000000000000000000000000000000000000000000000000000000000000000000000000000000000000000000000000000000000000000000000000000000000000000000000000000000000000000000000000000 %
1!
#940
0!
#945
b100000000000001010000000000000011000000000000000000000000000000000000000000000000000000000000000000000000000000000000000000000000000000000000000000000000000000000000000000000000000000000000000000000000000 %
1!
#950
0!
#955
b1000000000000000011000000000000011000000000000000000000000000000000000000000000000000000000000000000000000000000000000000000000000000000000000000000000000000000000000000000000000000000000000000000000000000 %
1!
#960
0!
#965
b100000000000000001000000000000011100000000000000000000000000000000000000000000000000000000000000000000000000000000000000000000000000000000000000000000000000000000000000000000000000000000000000000000000000 %
1!
#970
0!
#975
b101000000000000001100000000000000100000000000000000000000000000000000000000000000000000000000000000000000000000000000000000000000000000000000000000000000000000000000000000000000000000000000 %
1!
#980
0!
#985
b1000000000000010100000000000000110000000000000000000000000000000000000000000000000000000000000000000000000000000000000000000000000000000000000000000000000000000000000000000000000000000000 %
1!
#990
0!
#995
b10000000000000000110000000000000110000000000000000000000000000000000000000000000000000000000000000000000000000000000000000000000000000000000000000000000000000000000000000000000000000000000 %
1!
#1000
0!
#1005
b1000000000000000010000000000000111000000000000000000000000000000000000000000000000000000000000000000000000000000000000000000000000000000000000000000000000000000000000000000000000000000000 %
1!
#1010
0!
#1015
b1010000000000000011000000000000001000000000000000000000000000000000000000000000000000000000000000000000000000000000000000000000000000000000000000000000000000000000000000000 %
1!
#1020
0!
#1025
b10000000000000101000000000000001100000000000000000000000000000000000000000000000000000000000000000000000000000000000000000000000000000000000000000000000000000000000000000 %
1!
#1030
0!
#1035
b100000000000000001100000000000001100000000000000000000000000000000000000000000000000000000000000000000000000000000000000000000000000000000000000000000000000000000000000000 %
1!
#1040
0!
#1045
b10000000000000000100000000000001110000000000000000000000000000000000000000000000000000000000000000000000000000000000000000000000000000000000000000000000000000000000000000 %
1!
#1050
0!
#1055
b10100000000000000110000000000000010000000000000000000000000000000000000000000000000000000000000000000000000000000000000000000000000000000000000000000000000 %
1!
#1060
0!
#1065
b100000000000001010000000000000011000000000000000000000000000000000000000000000000000000000000000000000000000000000000000000000000000000000000000000000000 %
1!
#1070
0!
#1075
b1000000000000000011000000000000011000000000000000000000000000000000000000000000000000000000000000000000000000000000000000000000000000000000000000000000000 %
1!
#1080
0!
#1085
b100000000000000001000000000000011100000000000000000000000000000000000000000000000000000000000000000000000000000000000000000000000000000000000000000000000 %
1#
b100000000000000000100000000000011001110 $
1!
#1090
0!
#1095
0"
b100000000000000000100000000000011001110 %
0#
b100000000000000000100000000000011001110 &
1!
#1100
0!
#1105
1"
b100000000000000000000000000000000000000000000000000000000000000000000000000000000000000000000000000000000000000000000000000000000000000000000000000000000000000000000000000000000000000000000000000000000000000000000000000111011000000000000001100 %
b100000000000001000000000000001000000000000001000000000000001000000000000001000000000000001000000000000001000000000000001000000000000010000000000000001000000000000001100000000000001100000000000001101000000000001100000000000001100010000000001000110 &
1!
#1110
0!
#1115
b1100000000000000000000000000000000000000000000000000000000000000000000000000000000000000000000000000000000000000000000000000000000000000000000000000000000000000000000000000000000000000000000000000000000000100000000000000010111000000000001010010 %
b10000000000000000100100000000000100100000000000100100000000000100100000000000100100000000000100100000000000100100000000000100100000000010100100000000011000100000000011100100000000011000100000000011001000000000011000000000000011000010000000001010000 &
1!
#1120
0!
#1125
b1100000000000000000000000000000000000000000000000000000000000000000000000000000000000000000000000000000000000000000000000000000000000000000000000000000000000000000000000000000000000000000000000000000000000010100000000000110111000000000000010010 %
b100000100000000001100100000000001100100000000001100100000000001100100000000001100100000000001100100000000001100100000000001100100000000000100100000000011000100000000011000100000000011000100000000011010000000000011010000000000011010000000000010000000 &
1!
#1130
0!
#1135
b1100000000000000000000000000000000000000000000000000000000000000000000000000000000000000000000000000000000000000000000000000000000000000000000000000000000000000000000000000000000000000000000000000000000000110110000000000010001000000000000110010 %
b100000000000000000010000000000000010000000000000010000000000000010000000000000010000000000000010000000000000010000000000100010000000000110010000000000111010000000000110100000000000110000000000000110000000000000110000000000000110000000000000010100000 &
1!
#1140
0!
#1145
b11100000000000000000000000000000000000000000000000000000000000000000000000000000000000000000000000000000000000000000000000000000000000000000000000000000000000000000000000000000000000000000000000000000000000110110000000000010001100000000000110010 %
b1000000000000000010000000000000010000000000000010000000000000010000000000000010000000000000010000000000000010000000000000000000000000000110000000000000110000000000000110100000000000110100000000000110100000000000110100000000000110100000000000100000000 &
1!
#1150
0!
#1155
b111100000000000000100000000000000000000000000000000000000000000000000000000000000000000000000000000000000000000000000000000000000000000000000000000000000000000000000000000000000000000000000000000000000000000110111000000000010000100000000000110010 %
b1000000000000000000100000000000000100000000000000100000000000000100000000000000100000000000000100000000001000100000000001100100000000001110100000000001101000000000001100000000000001100000000000001100000000000001100000000000001100000000000000101000000 &
1!
#1160
0!
#1165
b100100000000000000110000000000000000000000000000000000000000000000000000000000000000000000000000000000000000000000000000000000000000000000000000000000000000000000000000000000000000000000000000000100000000000110011000000000010010110000000001000010 %
b10000000000000000100000000000000100000000000000100000000000000100000000000000100000000000000100000000000000000000000000001100000000000001100000000000001101000000000001101000000000001101000000000001101000000000001101000000000001101000000000001000000000 &
1!
#1170
0!
#1175
b1110000000000000110000000000000000000000000000000000000000000000000000000000000000000000000000000000000000000000000000000000000000000000000000000000000000000000000000000000000000000000000000000110000000000110100100000000110000010000000001100011 %
b10000000000000000001000000000000001000000000000001000000000000001000000000000001000000000010001000000000011001000000000011101000000000011010000000000011000000000000011000000000000011000000000000011000000000000011000000000000011000000000000001010000000 &
1!
#1180
0!
#1185
b11001000000000000101000000000000000000000000000000000000000000000000000000000000000000000000000000000000000000000000000000000000000000000000000000000000000000000000000000000000000000000000000000110000000001110010110000000100100010000000011100001 %
b100000000000000001000000000000001000000000000001000000000000001000000000000001000000000000000000000000000011000000000000011000000000000011010000000000011010000000000011010000000000011010000000000011010000000000011010000000000011010000000000010000000000 &
1!
#1190
0!
#1195
b1111111000000000001110000000000000000000000000000000000000000000000000000000000000000000000000000000000000000000000000000000000000000000000000000000000000000000000000000000000000000000000000001000110100000001110110110000001000100010000000011101011 %
b100000000000000000010000000000000010000000000000010000000000000010000000000100010000000000110010000000000111010000000000110100000000000110000000000000110000000000000110000000000000110000000000000110000000000000110000000000000110000000000000010100000000 &
1!
#1200
0!
#1205
b10000001000000000000000000000000000010000000000000000000000000000000000000000000000000000000000000000000000000000000000000000000000000000000000000000000000000000000000000000000000000000000000011101111100000001111110000000001000000000000000010000000 %
b1000000000000000010000000000000010000000000000010000000000000010000000000000000000000000000110000000000000110000000000000110100000000000110100000000000110100000000000110100000000000110100000000000110100000000000110100000000000110100000000000100000000000 &
1!
#1210
0!
#1215
b10001100000000010000011000000010000000100000001001110000000000110000000 %
b1000000000000000000100000000000000100000000000000100000000001000100000000001100100000000001110100000000001101000000000001100000000000001100000000000001100000000000001100000000000001100000000000001100000000000001100000000000001100000000000000101000000000 &
1!
#1220
0!
#1225
b1110000000010000101000000011001001100000011000100000000000110010000 %
b10000000000000000100000000000000100000000000000100000000000000000000000000001100000000000001100000000000001101000000000001101000000000001101000000000001101000000000001101000000000001101000000000001101000000000001101000000000001101000000000001000000000000 &
1!
#1230
0!
#1235
b1000000000000001011000000110001100000000101000101100000010001110000000001110000000 %
b10000000000000000001000000000000001000000000010001000000000011001000000000011101000000000011010000000000011000000000000011000000000000011000000000000011000000000000011000000000000011000000000000011000000000000011000000000000011000000000000001010000000000 &
1!
#1240
0!
#1245
b100000000000000000000000000000000000000000000000000000000000000000000000000000000000000000000000000000000000000000000000000000000000000000000000000000000000000000000001000000000000011011000000110001000000000101100001100000110110111000000001100010000 %
b100000000000000001000000000000001000000000000000000000000000011000000000000011000000000000011010000000000011010000000000011010000000000011010000000000011010000000000011010000000000011010000000000011010000000000011010000000000011010000000000010000000000000 &
1!
#1250
0!
#1255
b1100000000000000000000000000000000000000000000000000000000000000000000000000000000000000000000000000000000000000000000000000000000000000000000000000000000000000000000011000000000000011111000000111001000000001100011001100000100010111100000010000110000 %
b100000000000000000010000000000100010000000000110010000000000111010000000000110100000000000110000000000000110000000000000110000000000000110000000000000110000000000000110000000000000110000000000000110000000000000110000000000000110000000000000010100000000000 &
1!
#1260
0!
#1265
b1000000000000000000000000000000000000000000000000000000000000000000000000000000000000000000000000000000000000000000000000000000000000000000000000000000000000000000000100100000000100010011000001111101000000001110000001100001100010001110000010000110100 %
b10000000000000000000000000000110000000000000110000000000000110100000000000110100000000000110100000000000110100000000000110100000000000110100000000000110100000000000110100000000000110100000000000110100000000000110100000000000100000000000000 &
1!
#1270
0!
#1275
b10000000100011011000010001010110100010000010000000001000001011010000111000101100 %
b100000000001100100000000001110100000000001101000000000001100000000000001100000000000001100000000000001100000000000001100000000000001100000000000001100000000000001100000000000001100000000000001100000000000001100000000000000101000000000000 &
1!
#1280
0!
#1285
b10000000000000000000000000000000000000000000000000000000000000000000000000000000000000000000000000000000000000000000000000000000000000000000000000000000000000000000000000010000000000011011100000001110110100011000110000000011000011011100000110000001110 %
b1100000000000001100000000000001101000000000001101000000000001101000000000001101000000000001101000000000001101000000000001101000000000001101000000000001101000000000001101000000000001101000000000001101000000000001000000000000000 &
1!
#1290
0!
#1295
b110000000100000000000000000000000000000000000000000000000000000000000000000000000000000000000000000000000000000000000000000000000000000000000000000000000000000000000000000011000000001111010100000001010110110111001000000000010000011010110001010000011010 %
b10001000000000011101000000000011010000000000011000000000000011000000000000011000000000000011000000000000011000000000000011000000000000011000000000000011000000000000011000000000000011000000000000011000000000000001000000000000000010000000000000 &
1!
#1300
0!
#1305
b110000001100000000000000000000000000000000000000000000000000000000000000000000000000000000000000000000000000000000000000000000000000000000000000000000000000100000000001100011000000001101010000100001010110110110001001100010010100011010110001010000111011 %
b100000000000000100000000000000100000000000000100000000000000100000000000000100000000000000100000000000000100000000000000100000000000000100000000000000100000000000000100000000000000100000000000000100000000000000100000000000000 &
1!
#1310
0!
#1315
b110000001110000000000000000000000000000000000000000000000000000000000000000000000000000000000000000000000000000000000000000000000000000000000000000000000000110000000011100111000000000001010011100001000110111101001000000001010100010000101001011001100000 %
b100000000000000000000000000001100000000000001100000000000001100000000000001100000000000001100000000000001100000000000001100000000000001100000000000001100000000000001100000000000001100000000000001100000000000001100000000000001100000000000000100000000000000 &
1!
#1320
0!
#1325
b111000000100000000000000010000000000000000000000000000000000000000000000000000000000000000000000000000000000000000000000000000000000000000001000000000010000010000000001101100010000001101000000100000000110100001001100011100010100111000010011001001100011 %
b1100000000000001100000000000001100000000000001100000000000001100000000000001100000000000001100000000000001100000000000001100000000000001100000000000001100000000000001100000000000001100000000000001100000000000001000000000000000 &
1!
#1330
0!
#1335
b1111000000100000001000000000000000000000000000000000000000000000000000000000000000000000000000000000000000000000000000000000000000000000000001000000000011001100000000000011100000000001100010000100001100000100001001010010000110111000001000011001110100011 %
b10000000000000011100000000000011000000000000011000000000000011000000000000011000000000000011000000000000011000000000000011000000000000011000000000000011000000000000011000000000000011000000000000011000000000000001000000000000000010000000000000 &
1!
#1340
0!
#1345
b11000000000010000001100000000000000000000000000000000000000000000000000000000000000000000000000000000000000000000000000000000000000000000000001000000000001100000000000010010010000000011100010000000000000000000101011010000001110100000001010000000010000110 %
b100000000000000100000000000000100000000000000100000000000000100000000000000100000000000000100000000000000100000000000000100000000000000100000000000000100000000000000100000000000000100000000000000100000000000000100000000000000 &
1!
#1350
0!
#1355
b110000000000000000000000000000000000000000000000000000000000000000000000000000000000000000000000000000000000000000000000000000000000000000000001100100000000110011100000000011100000000000010010000000100100000000000110011110001000100100000000101 %
b100000000000000000000000000001100000000000001100000000000001100000000000001100000000000001100000000000001100000000000001100000000000001100000000000001100000000000001100000000000001100000000000001100000000000001100000000000001100000000000000100000000000000 &
1!
#1360
0!
#1365
b110000000000000000000000000000000000000000000000000000000000000000000000000000000000000000000000000000000000000000000000000000000000000000000001101000000000100011100000000100110110000000001010000001100100100000000111111100000100011000110001100 %
b1100000000000001100000000000001100000000000001100000000000001100000000000001100000000000001100000000000001100000000000001100000000000001100000000000001100000000000001100000000000001100000000000001100000000000001000000000000000 &
1!
#1370
0!
#1375
b1110000000000000000000000000000000000000000000000000000000000000000000000000000000000000000000000000000000000000000000000000000000000000000000001101100000000001000000000000110110010000000011011000001000100110000001000100010001000010010010001000 %
b10000000000000011100000000000011000000000000011000000000000011000000000000011000000000000011000000000000011000000000000011000000000000011000000000000011000000000000011000000000000011000000000000011000000000000001000000000000000010000000000000 &
1!
#1380
0!
#1385
b1100000000000000010000000000000000000000000000000000000000000000000000000000000000000000000000000000000000000000000000000000000000000000000000001000100000000011011100000000110000000000000100001000000000000001100001100110111000000000000000001010 %
b100000000000000100000000000000100000000000000100000000000000100000000000000100000000000000100000000000000100000000000000100000000000000100000000000000100000000000000100000000000000100000000000000100000000000000100000000000000 &
1!
#1390
0!
#1395
b1010000000000000110000000000000000000000000000000000000000000000000000000000000000000000000000000000000000000000000000000000000000000000000000011111000000000111111100000000111111110000000010011000000000111111100000000000011011000000000001011000 %
b100000000000000000000000000001100000000000001100000000000001100000000000001100000000000001100000000000001100000000000001100000000000001100000000000001100000000000001100000000000001100000000000001100000000000001100000000000001100000000000000100000000000000 &
1!
#1400
0!
#1405
b110000000000000000000000000000000000000000000000000000000000000000000000000000000000000000000000000000000000000011100000000000000001100000001000000000000000100000010000000000000010000000010000000000000001000001000000000001000000 %
b1100000000000001100000000000001100000000000001100000000000001100000000000001100000000000001100000000000001100000000000001100000000000001100000000000001100000000000001100000000000001100000000000001100000000000001000000000000000 &
1!
#1410
0!
#1415
b10000000000000001100000000000000111100000000000000100000000000000010000000000000000000000000000000000000000100000000000000000000000 %
b10000000000000011100000000000011000000000000011000000000000011000000000000011000000000000011000000000000011000000000000011000000000000011000000000000011000000000000011000000000000011000000000000011000000000000001000000000000000010000000000000 &
1!
#1420
0!
#1425
b11000000000000010011000000000000100100000000000000010000000000000010000000000000000000000000000000000000000000000000000000000000000 %
b100000000000000100000000000000100000000000000100000000000000100000000000000100000000000000100000000000000100000000000000100000000000000100000000000000100000000000000100000000000000100000000000000100000000000000100000000000000 &
1!
#1430
0!
